{

  "WEEKDAY_NAME_1": "Понеділок",
  "WEEKDAY_NAME_2": "Вівторок",
  "WEEKDAY_NAME_3": "Середа",
  "WEEKDAY_NAME_4": "Четвер",
  "WEEKDAY_NAME_5": "П'ятниця",
  "WEEKDAY_NAME_6": "Субота",
  "WEEKDAY_NAME_7": "Неділя",

  "BTN_ADD_NEW_OFFER": "Додати нову пропозицію",
  "BTN_ADD_NEW_EVENT": "Додати нову подію",
  "STANDARD_TEXT_NEW_EVENT": "Привіт, у мене є інформація щодо події якої немає в вашому додатку, я з вами нею поділюсь і за це хочу ",
  "STANDARD_FORM_IN_TEXTAREA": "\nПосилання: \nНазва: \nТекст: ",
  "STANDARD_TEXT_NEW_OFFER": "Привіт, у мене є інформація щодо пропозиції якої немає в вашому додатку, я з вами нею поділюсь і за це хочу ",

  "LABEL_COMMENT_INPUT": "Напиши тут свій коментар",
  "EMPTY_COMMENTS_COMMUNICATE": "Ще немає коментарів, будь першим!",

  "You need to specify an email": "Вам потрібно вказати електронну пошту",
  "Specify an email": "Вказати електронну пошту",

  "Error in data transfer": "Помилка в передачі даних",

  "Success": "Успішно",

  "Score": "Оцінка",

  "LOGIN_USER": "Логін",
  "Your login": "Ваш логін",
  "Maximum 25 characters": "Максимум 25 символів",
  "CREATE_LOGIN_COMMUNICATE": "* Логін можна вказати лиш один раз, потім можливості змінити небуде, і він є публічним. Можна використати великі та малі латинські літери, цифри та _ і не більше 25 символів \nПриклад: Salo_Sale",

  "Send confirmation email": "Надіслати електронний лист для підтвердження",
  "Your email has not been verified": "Ваша електронна пошта не підтверджена",
  "Add your login to have more features": "Додайте свій логін, щоб мати більше функцій",

  "Sent successfully": "Відправлено успішно",
  "Confirmation": "Підтвердження",

  "Closed": "Зачинений",
  "Opened": "Відкритий",

  "Copied to Clipboard": "Скопійовано у буфер обміну",

  "Offers for you": "Пропозиції для тебе",
  "There are no languages ​​in the list, possibly because there is no connection to the server": "У списку немає мов, можливо, тому що немає зв'язку з сервером",
  "There are no localizations ​​in the list, possibly because there is no connection to the server": "У списку немає локалізацій, можливо, тому що немає зв'язку з сервером",

  "This field is required": "Це поле обов'язкове",

  "I have an invite code": "У мене є код запрошення",

  "from ": "від ",
  "to ": "до ",

  "The limit has expired": "Ліміт закінчився",

  "Date added": "Дата додавання",

  "Last update": "Останнє оновлення",
  "min_ago": "хв. тому",
  "h_ago": "г. тому",
  "just now": "щойно",

  "OFFER_DETAIL_NEED_CONFIRM_EMAIL": "Для використання пропозиції, необхідно підтвердити свою електронну скриньку",
  "NOT_HAVE_INVITATION_CODE": "Вибачте, але ми не знайшли ваш код запрошення, будь ласка напишіть нам",

  "Show the barcode to the person with the scanner": "Покажіть штрих-код людині зі сканером",

  "Barcode": "Штрих-код",

  "Comment": "Коментар",
  "To leave a comment, you must be login": "Щоб залишити коментар, необхідно мати логін",
  "You must be logged in to post a comment": "Щоб залишити коментар, необхідно увійти",
  "Swipe from left to right or vice versa to select a score": "Проведіть пальцем зліва направо або навпаки, щоб вибрати оцінку",
  "Please rate": "Оцініть будь ласка",

  "General information": "Загальна інформація",
  "Provider": "Надавач",
  "Price": "Ціна",
  "Count": "Кількість",
  "Amount": "Сума",
  "things": "шт.",
  "Confirm": "Підтвердити",
  "Offer": "Пропозиція",
  "Offer invoice": "Каса",
  "Congratulations, you have successfully bought the offer, thank you and good mood": "Вітаємо, Ви успішно купили пропозицію, дякуємо і хорошого Вам настрою",
  "Sorry, there was an error": "Перепрошуємо, виникла якась помилка",
  "You have to use": "Ви маєте до використання",

  "TITLE_OF_INVITATION_MESSAGE": "Привіт, завантажуй Salo-Sale",
  "BODY_OF_INVITATION_MESSAGE": "Ось моє запрошення тобі, якщо зареєструєшся по моєму запрошенню то ти і я отримаємо по 50 бонусів",

  "How it works": "Як це працює",

  "HELP_PAGE_PAGE_1_SECTION_1": "Використати",
  "HELP_PAGE_PAGE_1_SECTION_1_1": "Накопичуй бонуси за перегляд пропозицій та отримуй знижки",
  "HELP_PAGE_PAGE_1_SECTION_2": "Купити",
  "HELP_PAGE_PAGE_1_SECTION_2_1": "Вибирай пропозицію яка найбільше подобається та показуй QR-код менеджеру при покупці",

  "HELP_PAGE_PAGE_2_SECTION_1": "Де змінити мову?",
  "HELP_PAGE_PAGE_2_SECTION_1_1": "1) На головній сторінці входу \n2) В профілі",
  "Or here": "Або тут",
  "Change the language": "Змінити мову",
  "Change of locality": "Змінити локалізацію",
  "Localizations": "Локалізації",
  "I already know everything": "Я і так все знаю",
  "Next": "Далі",
  "Wrong localization?": "Не та локалізація?",
  "HELP_PAGE_PAGE_3_SECTION_1_1": "Нічого страшного, можеш її змінити там де і мову",
  "Change location": "Змінити локалізацію",
  "Back": "Повернутись",
  "Ikoint": "Айкоінт",
  "HELP_PAGE_PAGE_4_SECTION_1_1": "Це бонуси за ваш час, участь та увагу, можете їх використати щоб купити наприклад пропозицію",
  "HELP_PAGE_PAGE_4_SECTION_1_2": "Получай додаткові бонуси за запрошення друзів",
  "Thanks": "Дякую",

  "These are your subscriptions to stores and services": "Це Ваші підписки на магазини та сервіси",
  "These are your purchased offers that you can use when it is convenient for you": "Це Ваші куплені пропозиції які можете використати коли Вам буде зручно",
  "Select one of the items to view your favorite offers, events, shops and services": "Виберіть один з пунктів для перегляду улюблених пропозиції, подій, магазинів та сервісів",

  "Take yours": "Забери свої",
  "Take your ikoints through": "Забери свої айкоінти через",
  "In process": "В процесі",
  "Next time already": "Наступний раз вже",
  "short_seconds": "сек.",

  "Copy the code and send it to a friend": "Скопіюйте код та відправте його до друга",
  "Is your friend far away?": "Ваш друг далеко?",
  "Is your friend close?": "Ваш друг близько?",
  "Show QR code": "Показати QR-код",
  "Click and show your qr code": "Натисніть та покажіть свій qr-код",

  "Hello": "Привіт",
  "Recommended": "Рекомендуємо",
  "Favorite": "Улюблене",
  "Buy for": "Купити за",
  "Buy": "Купити",
  "Go to registration": "Перейти до реєстрації",
  "Go to login": "Перейти до входу",
  "Your starting capital": "Твій стартовий капітал",
  "I agree with": "Погоджуюся з",
  "privacy policy": "політикою конфіденційності",
  "Your version is no longer up-to-date": "Ваша версія більше не є актуальною",
  "Please update the mobile application": "Оновіть будь ласка мобільний додаток",
  "The invitation code field is optional, but if you take the code from your friend, you and your friend will receive a": "Поле з кодом запрошення не є обов'язковим, проте якщо Ви візьмете код у свого друга то Ви і Ваш друг отримаєте по",

  "Image of offer": "Картинка пропозиції",
  "after tomorrow": "післязавтра",
  "Offer name": "Назва пропозиції",
  "tomorrow": "завтра",
  "Refresh": "Оновити",
  "Invitation code": "Код запрошення",
  "Invitation code or email": "Код запрошення або електронна скринька",
  "Save": "Зберегти",
  "Exit": "Вийти",
  "Are you sure you want to sign out of your account?": "Ви дійсно бажаєте вийти зі свого аккаунта?",
  "Phone number": "Номер телефону",
  "Get free ikoints by inviting your friends": "Завдяки тому що Ви запрошуєте друзів Ви отримуєте теж айкоінти",
  "Invite": "Запросити",
  "Our contacts": "Наші контакти",
  "Please enter your suggestion": "Напишіть текст який буде відправлений до нас",
  "Send": "Відправити",
  "Income": "Дохід",
  "Scanning": "Сканування",
  "Successful scan": "Успішне сканування",
  "Sign in as a guest": "Увійти як гість",
  "Open": "Відкрити",
  "Open the scanner": "Відкрити сканер",
  "Buyer": "Покупець",
  "Look at the offer": "Подивитись на пропозицію",
  "Sales history": "Історія продажу",
  "Guest cannot use suggestions, log in to your account": "Гість не може використовувати пропозиції, увійдіть до власного кабінету",
  "Surname": "Прізвище",
  "First name": "Ім'я",
  "Event description": "Опис події",
  "The name of the event": "Назва події",
  "What are we going to look for?": "Що будемо шукати?",
  "Offer description": "Опис пропозиції",
  "Description": "Опис",
  "Requirement description": "Опис вимог",
  "Show this Qr-code to the person with the scanner": "Покажи цей Qr-code людині з сканером",
  "Thank you for using our offer, good days to you!": "Дякуємо за використання нашої пропозиції, гарних Вам днів!",
  "We're sorry, but you don't have enough ikoint to take this opportunity": "Перепрошуємо але у Вас недостатньо ikoint-ів щоб скористатись можливістю",
  "Please confirm the email box": "Підтвердіть будь-ласка електронну скриньку",
  "Congratulations, you just earned": "Вітаю, Ви щойно заробили",
  "No picture": "Картинки немає",
  "You can take away your next ikoint-s": "Зможеш забрати свої наступні айкоінтии",
  "You do not have any messages yet": "У Вас поки що немає жодного повідомлення",

  "Your message has been sent successfully!": "Ваше повідомлення було успішно відправлено!",
  "Your message has not been sent!": "Ваше повідомлення не відправлено!",

  "Name": "Назва",

  "Adding a loyalty card": "Додавання картки лояльності",
  "Editing a loyalty card": "Редагування картки лояльності",
  "Loyalty card": "Картка лояльності",
  "Loyalty cards": "Картки лояльності",

  "Cannot be empty": "Не може бути пустим",

  "Client": "Клієнт",
  "Open offer": "Відкрити пропозицію",
  "New invoice": "Новий чек",
  "Invoices": "Чеки",
  "No data": "Немає даних",
  "Ok": "Добре",

  "Profile": "Профіль",
  "Rules": "Правила",
  "Feedback": "Зворотній зв'язок",
  "Help": "Допомога",
  "Logout": "Вийти",
  "Cashier": "Касир",
  "Friends": "Друзі",
  "Settings": "Налаштування",

  "Or": "Або",
  "Like": "Подобається",
  "Share": "Поділитись",
  "Subscribe": "Підписатись",

  "Contacts": "Контакти",
  "Points of sale": "Точки",
  "Point of sale": "Точка",

  "ikoint": "айкоінт",
  "ikoint_2": "айкоінтів",
  "ikoint`s": "айкоінти",

  "Continue with Facebook": "Продовжити з Facebook",
  "Continue with Apple": "Продовжити з Apple",
  "Continue with Google": "Продовжити з Google",

  "My offers": "Мої пропозиції",
  "My likes": "Вподобання",
  "My follows": "Мої підписки",
  "Notifications": "Повідомлення",
  "Invitations": "Запрошення",

  "Subscription": "Підписка",

  "Languages": "Мови",

  "Edit": "Редагувати",
  "SHORT_EDIT": "Ред.",
  "Edit profile": "Редагування профілю",

  "Close": "Закрити",
  "Write": "Написати",
  "Social network": "Соціальні мережі",
  "Contact": "Контакт",
  "Website": "Веб-портал",

  "the code has been copied": "код скопійовано",
  "You can also share your code by sending it to someone": "Також можеш поділитись своїм кодом відправивши його комусь",
  "or copy the code": "або скопіюйте код",
  "Show this Qr-code to a friend": "Покажи цей Qr-code другу",

  "Company offers": "Пропозиції закладу",

  "Offers": "Пропозиції",
  "Shops and services": "Магазини та сервіси",
  "Search": "Пошук",
  "Companies": "Заклади",
  "Events": "Події",
  "Likes": "Улюблені",
  "Menu": "Меню",

  "You cannot log out because you need to have an internet connection": "Ви не можете вийти бо необхідно мати підключений інтернет",

  "Add your business": "Додати свій бізнес",
  "You have not confirmed the e-mail, please confirm and then you can invite friends": "У Вас не підтверджена електронна скринька, підтвердіть будь ласка і тоді зможете запрошувати друзів",

  "Search shops and services in": "Шукати магазини та сервіси в",
  "Search offers in": "Шукати пропозиції в",
  "Search events in": "Шукати події в",

  "The list": "Список",
  "Open map": "Відкрити карту",

  "offers": "пропозиції",
  "companies": "заклади",
  "events": "події",
  "likes": "улюблені",
  "menu": "меню",

  "About us": "Про нас",

  "Select point of sale": "Виберіть торговельну точку",
  "Select city": "Виберіть місто",

  "Login page": "Авторизація",
  "Confirm email page": "Підтвердження електронної скриньки",
  "Registration page": "Реєстрація",
  "Reset password page": "Відновлення паролю",
  "Cashier Page": "Сторінка касира",

  "Login form": "Форма входу",
  "Registration form": "Форма реєстрації",
  "Reset password form": "Відновлення паролю",

  "Data is saved": "Дані записані",
  "Not found": "Не знайдено",
  "Point": "Точка",
  "Message": "Повідомлення",
  "Review": "Переглянути",
  "Links": "Посилання",
  "All offers": "Всі пропозиції",
  "Where to use": "Де можна використати",
  "At all points": "У всіх точках",
  "How to use offer": "Як користуватися пропозицією",

  "Confirm email": "Підтвердження електронної скриньки",

  "Email is sent": "Електронний лист був відправлений",
  "What will we look for?": "Що будемо шукати?",

  "E-mail": "Електронна скринька",
  "Username": "Псевдонім",
  "Phone": "Телефон",
  "Old password": "Актуальний пароль",
  "New password": "Новий пароль",
  "New password repeat": "Повторіть новий пароль",
  "Password": "Пароль",
  "Password repeat": "Повторіть пароль",
  "Reset password": "Відновити пароль",
  "Sign in": "Увійти",
  "Login": "Вхід",
  "Not registered yet?": "Ще не зареєстровані?",
  "Sign up": "Зареєструватись",
  "Send mail": "Відправити лист",
  "Already have an account": "Вже є аккаунт",

  "There are no offers from this institution, write to us if you would like the institution to create its first proposal": "Пропозицій від цього закладу немає, напиши до нас якщо ти хочеш щоб заклад створив свою першу пропозицію",
  "I want suggestions from": "Хочу пропозиції від",

  "Can't be empty": "Поле не може бути пустим",
  "Username can't be empty": "Вкажіть псевдонім",
  "E-mail can't be empty": "Укажіть електронну скриньку",
  "Phone can't be empty": "Укажіть номер телефону",
  "Login can't be empty": "Логін не може бути пустим",
  "Password can't be empty": "Укажіть пароль",
  "Password repeat can't be empty": "Повторіть пароль",
  "Passwords do not match": "Паролі не співпадають",
  "Password is short, should be at least 6 characters long": "Пароль короткий, має бути не менше 6 символів",

  "Delete invitation code": "Видалити код запрошення",
  "I have a code": "У мене є код",
  "Verification code": "Код підтвердження",
  "Check verification code": "Перевірити код підтвердження",
  "Change password": "Змінити пароль",
  "Password changed successfully": "Пароль успішно змінено",
  "The code has been verified, you can now enter a new one": "Код підтверджений, тепер Ви можете ввести новий",

  "There was an error, perhaps such e-mail is not involved": "Сталася помилка, можливо така електронна скринька не задіяний",
  "The e-mail has been sent, please check your e-mail": "Лист було відправлено, будь ласка, перевірте Вашу електронну скриньку",
  "You have successfully registered, welcome": "Ви успішно зареєструвались, вітаємо Вас",

  "We will be in your city soon": "Скоро будемо і в твоєму місті",
  "This login already exists": "Такий логін вже існує",
  "This email already exists": "Така електронна скринька вже існує",
  "Incorrect email": "Неправильна електронна скринька",
  "Incorrect login": "Неправильна логін",

  "All": "Всі",
  "Clothing": "Одяг",
  "Food": "Їжа",
  "Sport": "Спорт",
  "Tech": "Техніка",
  "Child": "Дитина",

  "All_2": "Всі",
  "Comments and ratings": "Коментарі та оцінки",
  "Similar offers": "Схожі пропозиції",
  "Map": "Мапа",
  "Comments": "Коментарі",
  "Replies": "Відповіді",
  "Scores": "Оцінки",

  "Cancel": "Скасувати",

  "Locality": "Локалізація",
  "Language": "Мова",

  "Search in": "Шукати в",

  "Tags": "Теги",

  "Yes": "Так",
  "No": "Ні",

  "FREE": "БЕЗКОШТОВНО",

  "You must be logged in": "Потрібно увійти",

  "Day before yesterday": "Позавчора",
  "Yesterday": "Вчора",
  "Today": "Сьогодні",
  "today": "сьогодні",
  "Tomorrow": "Завтра",

  "Validity": "Графік",
  "Discount cards": "Карти зі знижкою",

  "Use": "Використати",
  "You can use this code": "Ви можете скористатись цим кодом",
  "This code is inactive, your friend may not have yet verified their inbox": "Цей код не активний, можливо ваш друг еще не підтвердив свою електронну скриньку",

  "An unknown error occurred, please try again later": "Виникла невідома помилка, спробуйте будь ласка пізніше",

  "You are logged in as a guest, in order to start using the app in full you need to create your own account": "Ви авторизувались як гість, для того щоб почати використовувати додаток в повну силу Вам необхідно створити свій власний акаунт",
  "You are logged in as a guest": "Ви увійшли як гість",
  "I just want to look around": "Хочу просто подивитися",

  "Do you like this? \n\n Please sign in": "Вам подобається це? \n\n Будь ласка, увійдіть",

  "Congratulations, you have successfully used the offer": "Вітаємо, Ви успішно використали пропозицію",

  "You really want to delete the card?": "Ви дійсно бажаєте видалити картку?",
  "Delete": "Видалити",
  "Add new discount": "Додати нову знижку",

  "Add": "Додати",
  "Add new card": "Додати нову картку",
  "Scan": "Відсканувати",
  "Error": "Помилка",

  "Temporarily unavailable": "Тимчасово недоступний",

  "See on map": "Подивитися на карті",
  "History": "Історія",
  "Loading and three dots": "Завантаження...",
  "Try to connect to the server": "Спробувати підключитись до сервера",

  "The comment cannot be less than 5 characters": "Коментар не може бути меншим, ніж 5 символів",

  "Version of your system: ": "Версія вашої системи: ",

  "View all comments": "Переглянути всі коментарі",

  "ERROR_LOGIN_1": "Немає запису користувача, що відповідає цьому ідентифікатору. Користувача, можливо, видалили.",
  "ERROR_LOGIN_2": "Пароль недійсний або користувач не має пароля.",
  "ERROR_LOGIN_3": "Сталася помилка в мережі (наприклад, час очікування, перерване з'єднання або недоступний хост).",

  "Motto Salo-Sale": "Ми вклали весь свій досвід у те, щоб зробити зручний додаток. Пошук закладів, інформації, знижок, пропозицій, телефонів, соціальних мереж та інших контактів, заради яких доводилося шукати в інтернеті та на картах - тепер у Вас під рукою!",

  "html_agreements": "Користуючись Salo-Sale я погоджуюсь з <a href='https://salo-sale.com/terms-of-use.html' target='_blank'>правилами користування</a>, <a href='https://salo-sale.com/copyright.html' target='_blank'>авторськими правами</a> та <a href='https://salo-sale.com/privacy-policy.html' target='_blank'>політикою конфіденціальності</a>, проєкту, платформи та додатку",

  "like_page_guest": "Зараз Ви просто переглядаєте додаток, увійдіть щоб почати використовувати його на максимум, Вам будуть доступні різні функції, збір айкоінтів, купівля пропозиції, звантаження пропозиції для використання коли у Вас не буде підключення до інтернету, вподобання та підписування на Ваші улюблені магазини та сервіси, не гайте, а користуйтесь",

  "FOOTER_SCROLL_CONTENT": "Ми вже працюємо щоб їх стало більше",

  "COMPENSATION_MESSAGE": "Так як у тебе був вже профіль в старій базі ми даруємо тобі 100 айконтів",

  "EMPTY_FAVORITE_LIST": "Ваш розділ улюблених пустий, наповніть його натискаючи на",
  "EMPTY_FOLLOWS_LIST": "Ваш розділ підписок пустий, наповніть його натискаючи на",
  "FOOTER_SCROLL_CONTENT_EMPTY": "Даних немає, але ми вже працюємо над цим",

  "COMMENT_FOR_BUY_BUTTON": "* для отримання знижки Вам необхідно придбати і згенерувати код для пред'явлення касиру",

  "NOT_SAVED_LOYALTY_CARD_COMMUNICATE": "Ви маєте не збережені дані, хочете зберегти?",

  "The cost of the offer": "Вартість пропозиції",
  "Success set new invitation code": "Успішно використано код запрошення, Ви отримали додаткові бонуси",
  "BOTTOM_MESSAGE_IN_HISTORY_PAGE": "Невдовзі тут з'явиться Ваша історія, що використовували або звідки отримали ikoint.",
  "TOP_MESSAGE_IN_HISTORY_PAGE": "Це Ваші бонуси, ми їх називаємо ikoint, читається як \"айкоінт\", як Ви бачите, біля них знаходиться знак який означає що цифра яка біля цього знаку і є ikoint/бонуси",
  "MESSAGE_WITHOUT_INVITATION_USER_ID": "Можливо Вас хтось запросив?",
  "TEXT_DISCONNECT": "Неможемо підключитись до сервера, можливо немає інтернету",
  "TEXT_DISCONNECT_RECOMMENDED_COMPONENT": "Перепрошуємо, але ми не можемо підключитись до сервера, Ви можете скористатись з завантажених даних",
  "TEXT_FINISH_RECOMMENDATION": "Ми вже готуємо нові рекомендації. \n Можливо у Вас є що можна порекомендувати?",
  "EMPTY_LOYALTY_CARDS_TEXT_HTML": "<div>У Вас поки що немає жодної картки лояльності</div><br><div><b>Як додати картку?</b></div><br><ol><li>Візьміть картку будь-якого магазину, закладу, сервісу, де є штрих-код.</li><li>Натисніть на кнопку \"Додати нову картку\", після чого натисніть на \"Відсканувати\".</li><li>Відскануйте штрих-код картки, впишіть її назву та можете додати коментар.</li><li> Користуйтесь.</li></ol>",
  "APPLE_SIGN_IN_HIDE_EMAIL_COMMUNICATE": "Вибачте, але ми не можемо Вас авторизувати, оскільки Ви приховали свою електронну пошту, яка є ключовою для нашого сервісу. Якщо Ви не бажаєте вказувати її, то просимо Вас скористатись кнопкою “Хочу просто подивитись” або альтернативними шляхами авторизації.",
  "NOT_SUPPORT_SYSTEM_VERSION_FOR_APPLE_SIGN_IN": "Ми не підтримуємо дану версію системи, для авторизації через \"Apple Sign  In\", спробуйте авторизуватись традиційно або користуйтесь додатком в ролі гостя, або оновіть систему"
}