{
  "project_info": {
    "project_number": "253884189274",
    "firebase_url": "https://salo-sale.firebaseio.com",
    "project_id": "salo-sale",
    "storage_bucket": "salo-sale.appspot.com"
  },
  "client": [
    {
      "client_info": {
        "mobilesdk_app_id": "1:253884189274:android:b0fe524b97715aa342e663",
        "android_client_info": {
          "package_name": "com.hashlink.salo.sale.client.flutter.android"
        }
      },
      "oauth_client": [
        {
          "client_id": "253884189274-3fndrq2e76nk8r659bdupmpasep4ji24.apps.googleusercontent.com",
          "client_type": 1,
          "android_info": {
            "package_name": "com.hashlink.salo.sale.client.flutter.android",
            "certificate_hash": "a722505ceffe38acb8bbb37eb00ffa33f921516b"
          }
        },
        {
          "client_id": "253884189274-gj7bs93alcichfekp92pf671i5fslvqe.apps.googleusercontent.com",
          "client_type": 1,
          "android_info": {
            "package_name": "com.hashlink.salo.sale.client.flutter.android",
            "certificate_hash": "1e8d3721a0ed8cb81cf6ed7cb1d236069bb82bce"
          }
        },
        {
          "client_id": "253884189274-rvp923vj9bnipi8ehup6p564q7e6a4ot.apps.googleusercontent.com",
          "client_type": 1,
          "android_info": {
            "package_name": "com.hashlink.salo.sale.client.flutter.android",
            "certificate_hash": "c1136679bbb26e72bea315b9c2a297409ed3f2bf"
          }
        },
        {
          "client_id": "253884189274-b6249bibi6evhro9qdbp2jginspqsu03.apps.googleusercontent.com",
          "client_type": 1,
          "android_info": {
            "package_name": "com.hashlink.salo.sale.client.flutter.android",
            "certificate_hash": "43cee532ed3f6b160ed820f9567046d84e9f9ad5"
          }
        },
        {
          "client_id": "253884189274-9bap9gbmidsn16prscl12paehae5a1r3.apps.googleusercontent.com",
          "client_type": 3
        }
      ],
      "api_key": [
        {
          "current_key": "AIzaSyB9K9WHVQrzyol9TlnfgCIzBKYenUcr-J8"
        }
      ],
      "services": {
        "appinvite_service": {
          "other_platform_oauth_client": [
            {
              "client_id": "253884189274-9bap9gbmidsn16prscl12paehae5a1r3.apps.googleusercontent.com",
              "client_type": 3
            },
            {
              "client_id": "253884189274-4rc9fjues53mpg2fivfp05ec7nt9ratp.apps.googleusercontent.com",
              "client_type": 2,
              "ios_info": {
                "bundle_id": "com.hashlink.salo.sale.client.flutter.ios",
                "app_store_id": "1489502462"
              }
            }
          ]
        }
      }
    }
  ],
  "configuration_version": "1"
}